…
``` r
library(datos)
```

    ## Warning: package 'datos' was built under R version 3.6.1

``` r
encuesta <- datos::encuesta

encuesta
```

    ## # A tibble: 21,483 x 9
    ##     anio estado_civil  edad raza  ingreso partido religion denominacion
    ##    <int> <fct>        <int> <fct> <fct>   <fct>   <fct>    <fct>       
    ##  1  2000 Nunca se ha~    26 Blan~ 8000 -~ Indepe~ Protest~ Bautistas d~
    ##  2  2000 Divorciado      48 Blan~ 8000 -~ Republ~ Protest~ Bautista, n~
    ##  3  2000 Viudo           67 Blan~ No apl~ Indepe~ Protest~ No denomina~
    ##  4  2000 Nunca se ha~    39 Blan~ No apl~ Indepe~ Cristia~ No aplica   
    ##  5  2000 Divorciado      25 Blan~ No apl~ Demócr~ Ninguna  No aplica   
    ##  6  2000 Casado          25 Blan~ 20000 ~ Demócr~ Protest~ Bautistas d~
    ##  7  2000 Nunca se ha~    36 Blan~ 25000 ~ Republ~ Cristia~ No aplica   
    ##  8  2000 Divorciado      44 Blan~ 7000 -~ Indepe~ Protest~ Sínodo lute~
    ##  9  2000 Casado          44 Blan~ 25000 ~ Demócr~ Protest~ Otra        
    ## 10  2000 Casado          47 Blan~ 25000 ~ Republ~ Protest~ Bautistas d~
    ## # ... with 21,473 more rows, and 1 more variable: horas_tv <int>
…
    ## [1] 2.710227

``` r
encuesta <- encuesta %>% 
  mutate(Tipo_creyente = case_when(religion == "Ninguna" & horas_tv >= 2.7 ~ "Simpatizante comprometido", 
                                   religion == "Ninguna" & horas_tv <= 2.7 ~ "Simpatizante debil",
                                   religion != "Ninguna" & horas_tv >= 2.98 ~ "Muy creyente",
                                   religion != "Ninguna" & horas_tv <= 2.98 ~ "Poco creyente"))

head(encuesta, 30)
```

    ## # A tibble: 30 x 10
    ##     anio estado_civil  edad raza  ingreso partido religion denominacion
    ##    <int> <fct>        <int> <fct> <fct>   <fct>   <fct>    <fct>       
    ##  1  2000 Nunca se ha~    26 Blan~ 8000 -~ Indepe~ Protest~ Bautistas d~
    ##  2  2000 Viudo           67 Blan~ No apl~ Indepe~ Protest~ No denomina~
    ##  3  2000 Nunca se ha~    39 Blan~ No apl~ Indepe~ Cristia~ No aplica   
    ##  4  2000 Divorciado      25 Blan~ No apl~ Demócr~ Ninguna  No aplica   
    ##  5  2000 Nunca se ha~    36 Blan~ 25000 ~ Republ~ Cristia~ No aplica   
    ##  6  2000 Casado          44 Blan~ 25000 ~ Demócr~ Protest~ Otra        
    ##  7  2000 Casado          47 Blan~ 25000 ~ Republ~ Protest~ Bautistas d~
    ##  8  2000 Casado          53 Blan~ 25000 ~ Demócr~ Protest~ Otra        
    ##  9  2000 Casado          52 Blan~ 25000 ~ Demócr~ Protest~ Bautistas d~
    ## 10  2000 Divorciado      52 Blan~ 25000 ~ Indepe~ Ninguna  No aplica   
    ## # ... with 20 more rows, and 2 more variables: horas_tv <int>,
    ## #   Tipo_creyente <chr>
…
