…
``` r
encuesta <- read_csv(file = "encuesta.csv")
```

A través de deste comando creamos el dataframe. Podemos ver el contenido
del mismo escribiendo el nombre del *df*.

``` r
encuesta
```

    ## # A tibble: 21,483 x 9
    ##     anio estado_civil  edad raza  ingreso partido religion denominacion
    ##    <int> <fct>        <int> <fct> <fct>   <fct>   <fct>    <fct>       
    ##  1  2000 Nunca se ha~    26 Blan~ 8000 -~ Indepe~ Protest~ Bautistas d~
    ##  2  2000 Divorciado      48 Blan~ 8000 -~ Republ~ Protest~ Bautista, n~
    ##  3  2000 Viudo           67 Blan~ No apl~ Indepe~ Protest~ No denomina~
    ##  4  2000 Nunca se ha~    39 Blan~ No apl~ Indepe~ Cristia~ No aplica   
    ##  5  2000 Divorciado      25 Blan~ No apl~ Demócr~ Ninguna  No aplica   
    ##  6  2000 Casado          25 Blan~ 20000 ~ Demócr~ Protest~ Bautistas d~
    ##  7  2000 Nunca se ha~    36 Blan~ 25000 ~ Republ~ Cristia~ No aplica   
    ##  8  2000 Divorciado      44 Blan~ 7000 -~ Indepe~ Protest~ Sínodo lute~
    ##  9  2000 Casado          44 Blan~ 25000 ~ Demócr~ Protest~ Otra        
    ## 10  2000 Casado          47 Blan~ 25000 ~ Republ~ Protest~ Bautistas d~
    ## # ... with 21,473 more rows, and 1 more variable: horas_tv <int>
…
    ## # A tibble: 1 x 1
    ##   partido                      
    ##   <fct>                        
    ## 1 Independiente pro republicano

``` r
## Pimera columna del df (en formato de data.frame)
encuesta[1]
```

    ## # A tibble: 21,483 x 1
    ##     anio
    ##    <int>
    ##  1  2000
    ##  2  2000
    ##  3  2000
    ##  4  2000
    ##  5  2000
    ##  6  2000
    ##  7  2000
    ##  8  2000
    ##  9  2000
    ## 10  2000
    ## # ... with 21,473 more rows
…
**:** es una función especial que crea vectores numéricos de números
integros, ya sea en orden creciente o decreciente. Prueba con **1:10** y
**10:1**. También puedes excluir ciertos datos del data frame usando el
signo:
“**-**”:

``` r
encuesta[, -1]  # Devuelve todo el data.frame, excepto por la primera columna
```

    ## # A tibble: 21,483 x 8
    ##    estado_civil   edad raza  ingreso partido religion denominacion horas_tv
    ##    <fct>         <int> <fct> <fct>   <fct>   <fct>    <fct>           <int>
    ##  1 Nunca se ha ~    26 Blan~ 8000 -~ Indepe~ Protest~ Bautistas d~       12
    ##  2 Divorciado       48 Blan~ 8000 -~ Republ~ Protest~ Bautista, n~       NA
    ##  3 Viudo            67 Blan~ No apl~ Indepe~ Protest~ No denomina~        2
    ##  4 Nunca se ha ~    39 Blan~ No apl~ Indepe~ Cristia~ No aplica           4
    ##  5 Divorciado       25 Blan~ No apl~ Demócr~ Ninguna  No aplica           1
    ##  6 Casado           25 Blan~ 20000 ~ Demócr~ Protest~ Bautistas d~       NA
    ##  7 Nunca se ha ~    36 Blan~ 25000 ~ Republ~ Cristia~ No aplica           3
    ##  8 Divorciado       44 Blan~ 7000 -~ Indepe~ Protest~ Sínodo lute~       NA
    ##  9 Casado           44 Blan~ 25000 ~ Demócr~ Protest~ Otra                0
    ## 10 Casado           47 Blan~ 25000 ~ Republ~ Protest~ Bautistas d~        3
    ## # ... with 21,473 more rows
…
