…
La expectativa de vida, como podemos ver, es casi 60 años. Pero lo mejor
del **summarise** es poder combinarlo. Por ejemplo, queremos el promedio
expectativa de vida segun pais.

``` r
media_vida_pais <- gapminder %>% 
    group_by(pais) %>% 
    summarise(mean(expVida))
media_vida_pais
```

    ## # A tibble: 142 x 2
    ##    pais        `mean(expVida)`
    ##    <chr>                 <dbl>
    ##  1 Afghanistan            37.5
    ##  2 Albania                68.4
    ##  3 Algeria                59.0
    ##  4 Angola                 37.9
    ##  5 Argentina              69.1
    ##  6 Australia              74.7
    ##  7 Austria                73.1
    ##  8 Bahrain                65.6
    ##  9 Bangladesh             49.8
    ## 10 Belgium                73.6
    ## # ... with 132 more rows
…
